status,isdelete,user_type,email_verification,_id,name,email,password,number,address,city,state,pin,country,created_at,updated_at,__v
0,0,user,0,5dee24e9a01d6738ac0b5eef,saini,saini@gmail.com,abhi,1234567891,"Ludhiana, Punjab, India",Ludhiana,PB,,India,2019-12-09T10:41:45.884Z,2019-12-19T05:00:04.079Z,0
1,0,user,0,5dee2529a01d6738ac0b5ef0,kv,ks@gmail.com,ojngfv,7896541332,"Lalru, Punjab, India",Lalru,PB,,India,2019-12-09T10:42:49.157Z,2019-12-19T04:59:58.972Z,0
1,0,user,0,5dee277a2ae7483bbe282235,Brijeshwar,sainibrijeshwar1697@gmail.com,qwsedf,09988681556,"Kharar, Punjab, India",,,,,2019-12-09T10:52:42.321Z,2019-12-19T04:59:54.832Z,0
1,0,user,0,5df37da082b3a140c2739b73,dim,jimmy@gmail.com,abhi,1234567891,"Ludhiana, Punjab, India",Ludhiana,PB,,India,2019-12-09T10:41:45.884Z,2019-12-19T04:59:38.418Z,0
1,1,user,0,5dfb057da7f3611bd8b6b08a,jonny,jonny123@gmail.com,gnn,7854963214,"Kheri Chowk - Kharar Road, Chaudhary Hari Singh Nagar, New Hari Enclave, Kharar, Punjab, India",Kharar,PB,,India,2019-12-19T05:07:09.352Z,2019-12-19T05:25:45.038Z,0
1,1,user,0,5dfb0612ec33041c1670a8d4,priya,priya@gmail.com,784521,1234567899,"London, UK",London,England,,United Kingdom,2019-12-19T05:09:38.101Z,2019-12-19T05:09:38.101Z,0
1,1,user,0,5dfb08533e24261d7cfc1d54,dany,dany@gmail.com,gnn,7854963214,"Kheri Chowk - Kharar Road, Chaudhary Hari Singh Nagar, New Hari Enclave, Kharar, Punjab, India",,,,,2019-12-19T05:19:15.129Z,2019-12-19T05:19:15.129Z,0