status,isdelete,user_type,email_verification,_id,name,email,password,number,address,city,state,pin,country,created_at,updated_at,__v
0,1,user,0,5dee24e9a01d6738ac0b5eef,saini,saini@gmail.com,abhi,1234567891,"Ludhiana, Punjab, India",Ludhiana,PB,,India,2019-12-09T10:41:45.884Z,2019-12-16T09:49:20.645Z,0
1,1,user,0,5dee2529a01d6738ac0b5ef0,kv,ks@gmail.com,ojngfv,7896541332,"Lalru, Punjab, India",Lalru,PB,,India,2019-12-09T10:42:49.157Z,2019-12-16T09:49:06.735Z,0
1,1,user,0,5dee277a2ae7483bbe282235,Brijeshwar,sainibrijeshwar1697@gmail.com,qwsedf,09988681556,"Kharar, Punjab, India",,,,,2019-12-09T10:52:42.321Z,2019-12-09T10:52:42.321Z,0
1,1,user,0,5df37da082b3a140c2739b73,dim,jimmy@gmail.com,abhi,1234567891,"Ludhiana, Punjab, India",Ludhiana,PB,,India,2019-12-09T10:41:45.884Z,2019-12-16T09:49:15.714Z,0